…
summarize_all(mtcars, funs(min, max))

*_*_*_*_*_*
Helpful for map() functions:

**can use a nest() function to create a list column in the dataset, where each value is a dataframe
**use a broom function

y_country <- gapminder %>% 
  group_by(country, continent) %>% 
  nest()

by_country
## # A tibble: 142 x 3
##        country continent              data
##         <fctr>    <fctr>            <list>
##  1 Afghanistan      Asia <tibble [12 x 4]>
##  2     Albania    Europe <tibble [12 x 4]>
##  3     Algeria    Africa <tibble [12 x 4]>
##  4      Angola    Africa <tibble [12 x 4]>
##  5   Argentina  Americas <tibble [12 x 4]>
##  6   Australia   Oceania <tibble [12 x 4]>
##  7     Austria    Europe <tibble [12 x 4]>
##  8     Bahrain      Asia <tibble [12 x 4]>
##  9  Bangladesh      Asia <tibble [12 x 4]>
## 10     Belgium    Europe <tibble [12 x 4]>
## # ... with 132 more rows
